…
## Create a reader-friendly table showing the star baker or winner of each episode in Seasons 5 through 10

``` r
star_winner = baker_df_all |>
  filter(series >= 5 & series <= 10) |>
  filter(result %in% c("Star Baker","Series Winner" )) |>
  arrange(series, episode)
star_winner
```

    ## # A tibble: 60 × 11
    ##    baker_full_name   baker_first_name baker_age baker_occupation hometown series
    ##    <chr>             <chr>                <dbl> <chr>            <chr>     <dbl>
    ##  1 Nancy Birtwhistle Nancy                   60 Retired Practic… Barton-…      5
    ##  2 Richard Burr      Richard                 38 Builder          Mill Hi…      5
    ##  3 Luis Troyano      Luis                    42 Graphic Designer Poynton…      5
    ##  4 Richard Burr      Richard                 38 Builder          Mill Hi…      5
    ##  5 Kate Henry        Kate                    41 Furniture Resto… Brighto…      5
    ##  6 Chetna Makan      Chetna                  35 Fashion Designer Broadst…      5
    ##  7 Richard Burr      Richard                 38 Builder          Mill Hi…      5
    ##  8 Richard Burr      Richard                 38 Builder          Mill Hi…      5
    ##  9 Richard Burr      Richard                 38 Builder          Mill Hi…      5
    ## 10 Nancy Birtwhistle Nancy                   60 Retired Practic… Barton-…      5
    ## # ℹ 50 more rows
    ## # ℹ 5 more variables: episode <dbl>, signature_bake <chr>, show_stopper <chr>,
    ## #   technical <dbl>, result <chr>
…
